<svg width="75" height="150" viewBox="0 0 75 150" fill="none" xmlns="http://www.w3.org/2000/svg">
<path d="M71.8895 75C71.8191 75 71.7473 74.9984 71.677 74.9937C66.2042 74.609 67.6165 70.1424 63.7811 67.4723C63.5217 66.1349 61.9873 64.6162 61.3389 63.2225C60.6281 61.6897 59.8292 59.4436 58.3153 58.9728C56.1296 58.2971 55.6411 56.5818 56.5215 55.8927C57.3359 55.2554 57.2108 48.2808 56.4719 48.7036C56.4507 49.2183 54.5906 54.548 54.5113 54.5229C54.0379 54.3711 52.7991 54.5229 51.549 54.5229C50.3882 53.4499 51.6569 52.9703 53.0239 50.2878C53.4676 48.7878 54.1229 44.1031 54.1104 43.2131C54.0776 42.919 53.9636 42.4983 53.6308 42.3669C53.3277 42.248 52.7887 42.3262 52.2638 42.7767C51.3342 43.5729 48.8845 47.9416 47.569 50.2878L47.4737 50.4573C46.8537 51.56 46.3376 52.4776 46.0239 52.9703C45.3725 53.9964 44.082 55.1273 42.4103 55.2227C41.373 55.2603 41.2257 54.1412 39.7665 52.3362C38.4354 50.6891 37.1191 48.2489 36.1614 46.4564C34.9007 44.093 33.8844 41.697 32.033 40.1109C29.2006 37.6833 25.4187 37.8308 22.9284 37.31C17.5462 36.1838 6.3867 36.032 3.09493 36.0117C1.38733 35.9992 0 34.6008 0 32.8912C0.00312461 27.9391 0.00937315 12.3256 0.00937315 3.12207C0.00937315 1.39993 1.41076 0 3.13398 0H71.8645C72.7034 0 73.4908 0.32691 74.0814 0.922856C74.6719 1.51567 74.9938 2.30401 74.9891 3.14084C74.9313 14.2182 74.975 51.3108 74.9937 67.1495L75 71.8748C75 72.7429 74.6391 73.5782 74.0064 74.1663C73.4314 74.7012 72.6706 75 71.8895 75Z" fill="#4A5464"/>
<path d="M71.8895 150C71.8191 150 71.7473 149.998 71.677 149.994C66.2042 149.609 67.6165 145.142 63.7811 142.472C63.5217 141.135 61.9873 139.616 61.3389 138.223C60.6281 136.69 59.8292 134.444 58.3153 133.973C56.1296 133.297 55.6411 131.582 56.5215 130.893C57.3359 130.255 57.2108 123.281 56.4719 123.704C56.4507 124.218 54.5906 129.548 54.5113 129.523C54.0379 129.371 52.7991 129.523 51.549 129.523C50.3882 128.45 51.6569 127.97 53.0239 125.288C53.4676 123.788 54.1229 119.103 54.1104 118.213C54.0776 117.919 53.9636 117.498 53.6308 117.367C53.3277 117.248 52.7887 117.326 52.2638 117.777C51.3342 118.573 48.8845 122.942 47.569 125.288L47.4737 125.457C46.8537 126.56 46.3376 127.478 46.0239 127.97C45.3725 128.996 44.082 130.127 42.4103 130.223C41.373 130.26 41.2257 129.141 39.7665 127.336C38.4354 125.689 37.1191 123.249 36.1614 121.456C34.9007 119.093 33.8844 116.697 32.033 115.111C29.2006 112.683 25.4187 112.831 22.9284 112.31C17.5462 111.184 6.3867 111.032 3.09493 111.012C1.38733 110.999 0 109.601 0 107.891C0.00312461 102.939 0.00937315 87.3256 0.00937315 78.1221C0.00937315 76.3999 1.41076 75 3.13398 75H71.8645C72.7034 75 73.4908 75.3269 74.0814 75.9229C74.6719 76.5157 74.9938 77.304 74.9891 78.1408C74.9313 89.2182 74.975 126.311 74.9937 142.149L75 146.875C75 147.743 74.6391 148.578 74.0064 149.166C73.4314 149.701 72.6706 150 71.8895 150Z" fill="#40D9FF"/>
</svg>
