<svg width="75" height="75" viewBox="0 0 75 75" fill="none" xmlns="http://www.w3.org/2000/svg">
<path d="M35.8677 52.5809L18.6035 36.4816L21.0379 33.8728L35.5608 47.4121L71.9587 4.3457C69.6638 1.68806 66.2807 0 62.5 0H12.5C5.59431 0 0 5.59431 0 12.5V62.5C0 69.4057 5.59431 75 12.5 75H62.5C69.4057 75 75 69.4057 75 62.5V12.5C75 10.7282 74.6233 9.04018 73.9537 7.50558L35.8677 52.5809Z" fill="#4A5464"/>
</svg>
